{
  "configVersion": 1,
  "timestamp": 1621762185703,
  "index": "/index.html",
  "assetGroups": [
    {
      "name": "app",
      "installMode": "prefetch",
      "updateMode": "prefetch",
      "cacheQueryOptions": {
        "ignoreVary": true
      },
      "urls": [
        "/10-es2015.f60ad60572d4c8c69e86.js",
        "/10-es5.f60ad60572d4c8c69e86.js",
        "/11-es2015.34a52ef447ab455d3963.js",
        "/11-es5.34a52ef447ab455d3963.js",
        "/12-es2015.e302701bc33ccf6d080f.js",
        "/12-es5.e302701bc33ccf6d080f.js",
        "/13-es2015.2e7a266cadca27212a7f.js",
        "/13-es5.2e7a266cadca27212a7f.js",
        "/14-es2015.8c1d044423b2d6e5514a.js",
        "/14-es5.8c1d044423b2d6e5514a.js",
        "/2-es2015.20dd294aa0d59dc78110.js",
        "/2-es5.20dd294aa0d59dc78110.js",
        "/3-es2015.203a0fbbdfb31ee9a382.js",
        "/3-es5.203a0fbbdfb31ee9a382.js",
        "/8-es2015.bfb3ac788abaf8578259.js",
        "/8-es5.bfb3ac788abaf8578259.js",
        "/9-es2015.f7093c7aef612ab0471c.js",
        "/9-es5.f7093c7aef612ab0471c.js",
        "/common-es2015.55bacafb4e0c5ecd8678.js",
        "/common-es5.55bacafb4e0c5ecd8678.js",
        "/favicon.ico",
        "/index.html",
        "/main-es2015.63eeecebf9092c87df17.js",
        "/main-es5.63eeecebf9092c87df17.js",
        "/manifest.webmanifest",
        "/polyfills-es2015.5cdbe7dc9f558ae9337f.js",
        "/polyfills-es5.0aded0e2f5832e5dc7d7.js",
        "/runtime-es2015.9c6ed027162b83575f33.js",
        "/runtime-es5.9c6ed027162b83575f33.js",
        "/styles.9c76e006a405f80e802c.css"
      ],
      "patterns": []
    },
    {
      "name": "assets",
      "installMode": "lazy",
      "updateMode": "prefetch",
      "cacheQueryOptions": {
        "ignoreVary": true
      },
      "urls": [
        "/assets/icons/categories/cellphone.png",
        "/assets/icons/categories/laptop.png",
        "/assets/icons/categories/television.png",
        "/assets/icons/categories/watch.png",
        "/assets/icons/icon-128x128.png",
        "/assets/icons/icon-144x144.png",
        "/assets/icons/icon-152x152.png",
        "/assets/icons/icon-192x192.png",
        "/assets/icons/icon-384x384.png",
        "/assets/icons/icon-512x512.png",
        "/assets/icons/icon-72x72.png",
        "/assets/icons/icon-96x96.png",
        "/assets/img/carl-raw-n3GDA7mZVyU-unsplash.jpg",
        "/assets/img/ddp-1NyiWD3iorA-unsplash.jpg",
        "/assets/img/logo.png",
        "/assets/img/marita-kavelashvili-ugnrXk1129g-unsplash.jpg",
        "/assets/img/placeholder.png",
        "/assets/json/models.json",
        "/assets/svg/api-icons.svg"
      ],
      "patterns": []
    }
  ],
  "dataGroups": [],
  "hashTable": {
    "/10-es2015.f60ad60572d4c8c69e86.js": "d5bfdb72fccd79e392219d7b3beb5fb90b9da9a4",
    "/10-es5.f60ad60572d4c8c69e86.js": "f40460d85cb4b090001137c8402f7e99fd16baaa",
    "/11-es2015.34a52ef447ab455d3963.js": "6ea07b59e92c66602d2e538cf1a71a71a2594005",
    "/11-es5.34a52ef447ab455d3963.js": "1bd0ab70aa326f5e5dc0cd45ca3ea23e70dde247",
    "/12-es2015.e302701bc33ccf6d080f.js": "e34d69f1cc3b13b143163bac43740f1f8d932662",
    "/12-es5.e302701bc33ccf6d080f.js": "a582635a206989583f8a205847c456eb61a8119f",
    "/13-es2015.2e7a266cadca27212a7f.js": "f6da24ce5952446908d71b05db49e3aafc652dce",
    "/13-es5.2e7a266cadca27212a7f.js": "25ce739dd8280a8aeacda0b2526fb6ad82785aec",
    "/14-es2015.8c1d044423b2d6e5514a.js": "be5e534ab121778a21dcd20218ab388261b332a7",
    "/14-es5.8c1d044423b2d6e5514a.js": "aef4ed6d06b2de8184ba31215e00a67b8b1c05e9",
    "/2-es2015.20dd294aa0d59dc78110.js": "9e2d82bc270d793022949e28826dd9b237a66a78",
    "/2-es5.20dd294aa0d59dc78110.js": "faa7ea736960a787aefd5fd1add051d01a8f1a9e",
    "/3-es2015.203a0fbbdfb31ee9a382.js": "05e6c45438ea8ba91c29ba995393e1a19dcc9691",
    "/3-es5.203a0fbbdfb31ee9a382.js": "1e3be6256ba1a97eda04589fa836bf468be779b2",
    "/8-es2015.bfb3ac788abaf8578259.js": "3ae3d3579902741a88f5e337aa20d645aa115f8d",
    "/8-es5.bfb3ac788abaf8578259.js": "791da2c087562d0c37e8d66ee063ee3e99baae03",
    "/9-es2015.f7093c7aef612ab0471c.js": "5534978fa32e1d14eac7d4729576e6f2de21c506",
    "/9-es5.f7093c7aef612ab0471c.js": "bb9fd07f8a170c4d0bfc559dbe401875dd1caf31",
    "/assets/icons/categories/cellphone.png": "2e77fd9d1d499b785d184783220bc2ca534426c9",
    "/assets/icons/categories/laptop.png": "c596ac3ac9bf60483817e177123ef659408225c9",
    "/assets/icons/categories/television.png": "437c33bd40b8de4062e1b4925ad21a2185f5e3b9",
    "/assets/icons/categories/watch.png": "8b057a4e9447ea8497cc0a12bcbc493c9ae30768",
    "/assets/icons/icon-128x128.png": "dae3b6ed49bdaf4327b92531d4b5b4a5d30c7532",
    "/assets/icons/icon-144x144.png": "b0bd89982e08f9bd2b642928f5391915b74799a7",
    "/assets/icons/icon-152x152.png": "7479a9477815dfd9668d60f8b3b2fba709b91310",
    "/assets/icons/icon-192x192.png": "1abd80d431a237a853ce38147d8c63752f10933b",
    "/assets/icons/icon-384x384.png": "329749cd6393768d3131ed6304c136b1ca05f2fd",
    "/assets/icons/icon-512x512.png": "559d9c4318b45a1f2b10596bbb4c960fe521dbcc",
    "/assets/icons/icon-72x72.png": "c457e56089a36952cd67156f9996bc4ce54a5ed9",
    "/assets/icons/icon-96x96.png": "3914125a4b445bf111c5627875fc190f560daa41",
    "/assets/img/carl-raw-n3GDA7mZVyU-unsplash.jpg": "8f8d891a95e9e76a53984f033dcecee8a5d4440a",
    "/assets/img/ddp-1NyiWD3iorA-unsplash.jpg": "dc3ad19a41a60555450457a7b33e61fa11d25dc6",
    "/assets/img/logo.png": "4ef837ac733fffee817ce267280d305f58497843",
    "/assets/img/marita-kavelashvili-ugnrXk1129g-unsplash.jpg": "88d17bd23c1dd0f82ee924389536f4afa144214d",
    "/assets/img/placeholder.png": "bb2c865ddaad64075ffe7178d09aecdb978be2cb",
    "/assets/json/models.json": "5b025e4234105c999972b51972d2c414e8f32a68",
    "/assets/svg/api-icons.svg": "9fb60a76ee821e9cf1c33bcaaae6a998dec456e1",
    "/common-es2015.55bacafb4e0c5ecd8678.js": "809df8b65f24afcea42467d4db8a9c174cb9fbfc",
    "/common-es5.55bacafb4e0c5ecd8678.js": "c5c6041bb9c947786905df7b26bf9e390cd437ce",
    "/favicon.ico": "22f6a4a3bcaafafb0254e0f2fa4ceb89e505e8b2",
    "/index.html": "e984649fb7c01ff8289a4d74bc97795b7fe9ad54",
    "/main-es2015.63eeecebf9092c87df17.js": "292a24bef1b146b6192c2990f6e0c812a74ee241",
    "/main-es5.63eeecebf9092c87df17.js": "b182927236bd5e6630f7139fb8dadb6b55a78830",
    "/manifest.webmanifest": "9d0b26196df567545ecfcd73af74534be161e927",
    "/polyfills-es2015.5cdbe7dc9f558ae9337f.js": "8a529f239dc26277ce980058c49a1b23c9f77a51",
    "/polyfills-es5.0aded0e2f5832e5dc7d7.js": "2e21badf1e6f7ae3bd0e67c2bfcb4f6b5f7812e1",
    "/runtime-es2015.9c6ed027162b83575f33.js": "19d935050d0a22b0f5294d6f660fa53db65fcb17",
    "/runtime-es5.9c6ed027162b83575f33.js": "cb19c08a15461cb676fb974b37180bc2aa440f8f",
    "/styles.9c76e006a405f80e802c.css": "98217199023204b134c82b57a1a624fdae40c060"
  },
  "navigationUrls": [
    {
      "positive": true,
      "regex": "^\\/.*$"
    },
    {
      "positive": false,
      "regex": "^\\/(?:.+\\/)?[^/]*\\.[^/]*$"
    },
    {
      "positive": false,
      "regex": "^\\/(?:.+\\/)?[^/]*__[^/]*$"
    },
    {
      "positive": false,
      "regex": "^\\/(?:.+\\/)?[^/]*__[^/]*\\/.*$"
    }
  ],
  "navigationRequestStrategy": "performance"
}