{
  "batch": {
    "name": "batch",
    "displayName": "Batch",
    "view": "flow",
    "url": "batches",
    "properties": [
      { "name": "description", "type": "string", "width": { "lg": "48" } },
      { "name": "initialQuantity", "type": "number", "required": true, "width": { "lg": "25" } },
      { "name": "quantity", "type": "number", "width": { "lg": "25" } },
      { "name": "reservedQuantity", "type": "number", "width": { "lg": "24" } },
      { "name": "arrivedDate", "type": "date", "width": { "lg": "24" } },
      { "name": "expiryDate", "type": "date", "width": { "lg": "24" } },
      { "name": "manufacturedDate", "type": "date", "width": { "lg": "24" } }
    ]
  },
  "category": {
    "name": "category",
    "displayName": "Category",
    "title": "name",
    "url": "categories",
    "properties": {
      "name": { "name": "name", "type": "string", "required": true, "width": { "lg": "100" } },
      "image": { "name": "image", "type": "image" }
    }
  },
  "customer": {
    "name": "customer",
    "displayName": "Customers",
    "title": "firstName",
    "url": "customers",
    "properties": {
      "firstName": {
        "name": "firstName",
        "type": "string",
        "required": true,
        "width": { "lg": "48" }
      },
      "address": {
        "name": "address",
        "type": "embedded",
        "entityMeta": {
          "properties": {
            "line1": { "name": "line1", "type": "string" },
            "line2": { "name": "line2", "type": "string" },
            "City": { "name": "city", "type": "string" },
            "type": { "name": "type", "type": "string" },
            "default": { "name": "default", "type": "string" }
          }
        },
        "width": { "lg": "48" }
      },
      "telePhone": { "name": "telePhone", "type": "string" },
      "lastName": { "name": "lastName", "type": "string", "width": { "lg": "48" } }
    }
  },
  "currency": {
    "name": "currency",
    "title": "code",
    "displayName": "Currency",
    "url": "currencies",
    "properties": [
      {
        "name": "name",
        "type": "string",
        "width": { "lg": "48" }
      },
      {
        "name": "code",
        "type": "string",
        "width": { "lg": "48" }
      }
    ]
  },
  "delivery": {
    "name": "delivery",
    "displayName": "Delivery",
    "title": "quantity",
    "url": "deliveries",
    "properties": {
      "quantity": {
        "name": "quantity",
        "type": "number",
        "required": true,
        "width": { "lg": "20" }
      },
      "salesOrderLine": {
        "name": "salesOrderLine",
        "type": "object",
        "required": true,
        "width": { "lg": "40" }
      }
    }
  },
  "deliveryOrders": {
    "name": "deliveryOrders",
    "displayName": "Delivery Orders",
    "title": "dispatchDate",
    "url": "deliveryOrders",
    "properties": {
      "dispatchDate": { "name": "dispatchDate", "type": "date", "width": { "lg": 30 } },
      "deliveryVehicle": { "name": "deliveryVehicle", "type": "object", "width": { "lg": 30 } },
      "note": { "name": "note", "type": "string", "width": { "lg": 30 } },
      "status": { "name": "status", "type": "string", "width": { "lg": 30 } }
    }
  },
  "deliveryVehicle": {
    "name": "deliveryVehicle",
    "displayName": "Delivery Vehicle",
    "title": "registorNumber",
    "url": "deliveryVehicles",
    "properties": {
      "registorNumber": { "name": "registorNumber", "type": "string", "width": { "lg": 30 } },
      "description": { "name": "description", "type": "string", "width": { "lg": 30 } }
    }
  },
  "inventoryTransaction": {
    "name": "inventoryTransaction",
    "displayName": "Inventory Transaction",
    "title": "name",
    "url": "inventoryTransactions",
    "properties": {
      "name": { "name": "reference", "type": "string", "width": { "lg": "100" } },
      "quantity": { "name": "quantity", "type": "number", "width": { "lg": "20" } },
      "transactionType": {
        "name": "transactionType",
        "type": "enum",
        "enums": ["In", "Out"],
        "width": { "lg": "20" }
      },
      "date": { "name": "date", "type": "date", "width": { "lg": "20" } },
      "totalAmount": { "name": "totalAmount", "type": "money", "width": { "lg": "20" } }
    }
  },
  "product": {
    "name": "product",
    "displayName": "Products",
    "url": "products",
    "title": "name",
    "config": {
      "entity": {
        "enableProjection": true,
        "projection": "entity"
      }
    },
    "properties": {
      "name": { "name": "name", "type": "string", "width": { "lg": "48" } }
    }
  },
  "payment": {
    "name": "payment",
    "displayName": "Payment",
    "title": "amount",
    "url": "payments",
    "properties": {
      "quantity": {
        "name": "amount",
        "type": "number",
        "required": true,
        "width": { "lg": "20" }
      }
    }
  },
  "purchaseOrder": {
    "name": "purchaseOrder",
    "displayName": "Purchase Order",
    "url": "purchaseOrders"
  },
  "purchaseOrderLine": {
    "name": "purchaseOrderLine",
    "displayName": "Purchase Order Line",
    "url": "purchaseOrderLines"
  },
  "supplier": {
    "name": "supplier",
    "displayName": "Supplier",
    "url": "suppliers"
  },
  "supplierForProduct": {
    "name": "supplierForProduct",
    "displayName": "Supplier For Product",
    "url": "supplierForProducts"
  },
  "salesRepresentative": {
    "name": "salesRepresentative",
    "displayName": "Sales Representative",
    "title": "firstName",
    "url": "salesRepresentatives",
    "properties": {
      "firstName": {
        "name": "firstName",
        "type": "string",
        "required": true,
        "width": { "lg": "48" }
      },
      "lastName": {
        "name": "lastName",
        "type": "string",
        "required": true,
        "width": { "lg": "48" }
      }
    }
  },
  "salesOrder": {
    "name": "salesOrder",
    "displayName": "Sales Order",
    "view": "flow",
    "url": "salesOrders",
    "validators": [
      {
        "on": "orderType",
        "value": "Retailer",
        "disable": ["measureSqft", "totalAmount"]
      }
    ],
    "properties": {
      "orderNumber": { "name": "orderNumber", "type": "string", "width": { "lg": "24" } },
      "orderType": {
        "name": "orderType",
        "type": "enum",
        "enums": ["Retailer", "Project"],
        "width": { "lg": "24" }
      },
      "wanterDeliveryDate": {
        "name": "wanterDeliveryDate",
        "type": "date",
        "width": { "lg": "24" }
      },
      "ordrStartDate": {
        "name": "ordrStartDate",
        "type": "date",
        "width": { "lg": "24" }
      },
      "customer": {
        "name": "customer",
        "type": "object",
        "reference": "customer",
        "width": { "lg": "24" }
      },
      "deliveryAddress": {
        "name": "deliveryAddress",
        "type": "embedded",
        "entityMeta": {
          "properties": {
            "line1": { "name": "line1", "type": "string" }
          }
        },
        "width": { "lg": "24" }
      },
      "salesRepresentative": {
        "name": "salesRepresentative",
        "type": "object",
        "reference": "salesRepresentative",
        "width": { "lg": "24" }
      },
      "team": { "name": "team", "type": "string", "width": { "lg": "24" } },
      "unitPrice": { "name": "unitPrice", "type": "money", "width": { "lg": "24" } },
      "measureSqft": { "name": "measureSqft", "type": "number", "width": { "lg": "24" } },
      "calculatedSqft": { "name": "calculatedSqft", "type": "number", "width": { "lg": "24" } },
      "totalAmount": { "name": "totalAmount", "type": "money", "width": { "lg": "24" } },
      "_spacer": { "name": "spacer", "type": "spacer", "width": { "lg": "50" } },
      "totalPaid": { "name": "totalPaid", "type": "money", "width": { "lg": "24" } },
      "totalBePaid": { "name": "totalBePaid", "type": "money", "width": { "lg": "24" } },
      "_tabs": {
        "type": "tabs",
        "tabs": [
          {
            "name": "salesOrderLines",
            "displayName": "Order Lines",
            "reference": "salesOrderLine",
            "entityMeta": {
              "properties": {
                "product": {
                  "name": "product",
                  "type": "object",
                  "reference": "product",
                  "width": { "lg": "20vw" }
                },
                "quantity": {
                  "name": "quantity",
                  "type": "number"
                },
                "deliveredQuantity": {
                  "name": "deliveredQuantity",
                  "type": "number"
                },
                "price": {
                  "name": "price",
                  "type": "number"
                },
                "discountType": {
                  "name": "discountType",
                  "type": "enum",
                  "enums": ["Fixed", "Presentage"]
                },
                "discount": {
                  "name": "discount",
                  "type": "number"
                },
                "status": {
                  "name": "status",
                  "type": "enum",
                  "enums": ["Deliverd", "Paid"]
                }
              }
            }
          },
          {
            "name": "salesOrderCharge",
            "displayName": "Charges",
            "reference": "salesOrderCharge",
            "entityMeta": {
              "properties": {
                "amount": {
                  "name": "amount",
                  "type": "number"
                },
                "description": {
                  "name": "description",
                  "type": "string"
                },
                "type": {
                  "name": "type",
                  "type": "object",
                  "reference": "salesChargeType",
                  "mutations": [
                    {
                      "type": "update",
                      "from": "defaultAmount",
                      "to": "amount"
                    }
                  ]
                }
              }
            }
          },
          {
            "name": "deliveries",
            "displayName": "Deliveries",
            "reference": "delivery",
            "entityMeta": {
              "properties": {
                "quantity": {
                  "name": "quantity",
                  "type": "number"
                }
              }
            }
          },
          {
            "name": "payments",
            "displayName": "Payments",
            "reference": "payment",
            "entityMeta": {
              "properties": {
                "quantity": {
                  "name": "quantity",
                  "type": "number"
                }
              }
            }
          }
        ],
        "width": { "lg": "100" }
      }
    }
  },
  "salesOrderLine": {
    "name": "salesOrderLine",
    "displayName": "Sales Order Lines",
    "title": "name",
    "url": "salesOrderLines",
    "properties": {
      "name": { "name": "name", "type": "string", "required": true, "width": { "lg": "100" } }
    }
  },
  "salesOrderCharge": {
    "name": "salesOrderCharge",
    "displayName": "Sales Order Charge",
    "title": "amount",
    "url": "charges",
    "properties": {
      "description": { "name": "description", "type": "string", "width": { "lg": "48" } },
      "amount": { "name": "amount", "type": "number", "required": true, "width": { "lg": "24" } },
      "type": {
        "name": "type",
        "type": "object",
        "reference": "salesChargeType",
        "width": { "lg": "24" }
      }
    }
  },
  "salesChargeType": {
    "name": "salesChargeType",
    "displayName": "Sales Charge Type",
    "title": "name",
    "url": "salesChargeTypes",
    "properties": {
      "name": { "name": "name", "type": "string", "required": true, "width": { "lg": "48" } },
      "defaultAmount": {
        "name": "defaultAmount",
        "type": "number",
        "required": true,
        "width": { "lg": "48" }
      }
    }
  },
  "systemUser": {
    "name": "systemUser",
    "displayName": "System User",
    "title": "username",
    "url": "systemUsers",
    "properties": {
      "username": {
        "name": "username",
        "type": "string",
        "required": true,
        "width": { "lg": "20" }
      },
      "password": {
        "name": "password",
        "type": "string",
        "required": true,
        "width": { "lg": "20" }
      }
    }
  }
}
